Chapter 2 Inputs and formats | Statistical Human Genetics course using R
…
First, use snp_readBGI() to get information on the variants.

Then read the first 10 variants using snp_readBGEN() (pay attention to the specific format of list_snp_id), and snp_attach().

What extra information about the variants do you get in the bigSNP object?

Click to see solution

(var_info <- snp_readBGI(bgi))

#> # A tibble: 199 × 8
#>    chromosome position rsid     number_of_alleles allele1 allele2
#>    <chr>         <int> <chr>                <int> <chr>   <chr>  
#>  1 01             1001 RSID_101                 2 A       G      
#>  2 01             2000 RSID_2                   2 A       G      
#>  3 01             2001 RSID_102                 2 A       G      
#>  4 01             3000 RSID_3                   2 A       G      
#>  5 01             3001 RSID_103                 2 A       G      
#>  6 01             4000 RSID_4                   2 A       G      
#>  7 01             4001 RSID_104                 2 A       G      
#>  8 01             5000 RSID_5                   2 A       G      
#>  9 01             5001 RSID_105                 2 A       G      
#> 10 01             6000 RSID_6                   2 A       G      
#> # ℹ 189 more rows
#> # ℹ 2 more variables: file_start_position <dbl>, size_in_bytes <int>
…
